{
  "rules": {
    ".read": true,
    ".write": true,
    "sessions": {
      ".read": true,
      ".write": true,
      "$sessionKey": {
        ".read": true,
        ".write": true,
        "session": {
          "key": {
          },
          "secured": {
          },
          "users": {
          },
        }
      }
    }
  }
}
